…
queries <- c("Anguilla marmorata","Uncia uncia")
search_taxonID(query = queries,name = "scientificName",apiKey = apiKey)
# last Update: 2020-03-17
# |======================================================================================| 100%, Elapsed 00:01
# # A tibble: 2 x 3
#   scientificName     taxonIDs                             download.date
#   <chr>              <chr>                                <date>       
# 1 Anguilla marmorata e192fbc15df24049bcd0fd01d307affa     2020-03-17   
# 2 Uncia uncia        b8c6a086-3d28-4876-8e8a-ca96e667768d 2020-03-17  


search_taxonID(query = "bf72e220caf04592a68c025fc5c2bfb7",name = "familyID",apiKey = apiKey)
# last Update: 2020-03-17
# # A tibble: 699 x 3
#   familyID                         taxonIDs                         download.date
#   <chr>                            <chr>                            <date>       
# 1 bf72e220caf04592a68c025fc5c2bfb7 0019772b1f8f425f991eaa1b6faa0267 2020-03-17   
# 2 bf72e220caf04592a68c025fc5c2bfb7 002336a9094e46ad89611a712d4cbffd 2020-03-17   
# 3 bf72e220caf04592a68c025fc5c2bfb7 00f331f1289e43cfb51e19a1843c5b3d 2020-03-17   
# 4 bf72e220caf04592a68c025fc5c2bfb7 0105aa416e95405d807984f504addae4 2020-03-17   
# 5 bf72e220caf04592a68c025fc5c2bfb7 010ad956e57e4a489f79e11faf38d473 2020-03-17   
# 6 bf72e220caf04592a68c025fc5c2bfb7 01607832b13743c8b41a25dfb6406b0b 2020-03-17   
# 7 bf72e220caf04592a68c025fc5c2bfb7 01ec56a6ea8a44bf8dbc6aa1655aa875 2020-03-17   
# 8 bf72e220caf04592a68c025fc5c2bfb7 02d92b0d50884da5a3a7c78db34ce09c 2020-03-17   
# 9 bf72e220caf04592a68c025fc5c2bfb7 0323c94f48134445a7bd3c44c0b40227 2020-03-17   
# 10 bf72e220caf04592a68c025fc5c2bfb7 032523c4852d406f8cd93fd8621b4676 2020-03-17   
# # … with 689 more rows
…
